module gitlab.com/paulanguedes/codepix

go 1.15

require (
	github.com/asaskevich/govalidator v0.0.0-20200907205600-7a23bdc65eef
	github.com/satori/go.uuid v1.2.0
	golang.org/x/crypto v0.0.0-20201221181555-eec23a3978ad // indirect
	golang.org/x/net v0.0.0-20210119194325-5f4716e94777 // indirect
)
